item (id);parameter (id);state 
20;2;3
21;2;6
22;3;2
23;3;2
24;3;2
25;2;2
26;2;4
26;3;-6
27;2;2
27;3;-1
28;3;2
29;2;8
29;3;-1
30;2;-1
30;3;4
31;2;-1
31;3;4
32;3;4
33;2;1
33;3;1
34;2;10
35;3;6
36;3;6
37;2;2
37;3;2
38;3;6
39;3;6
40;3;6
41;2;-1
41;3;4
42;2;-1
42;3;4
43;2;-1
43;3;4
44;2;6
44;3;-1
45;2;-2
45;3;4
46;3;4
47;2;-2
47;3;4
48;2;-2
48;3;4
49;2;-2
49;3;4
50;2;-2
50;3;4
51;3;3
51;2;3
52;3;4
53;2;10
54;3;4
55;3;4
56;3;4
57;3;4
58;2;8
58;2;-3
59;3;3
60;3;3
61;3;3
62;3;3
63;3;3
64;3;3
65;2;16
66;3;5
66;2;4
67;3;5
68;3;5
69;3;5
70;3;5
71;3;5
72;2;15
73;3;6
73;2;6
74;3;6
75;3;6
76;3;6
77;3;6
78;3;6