name;question; answer; justification
Zagadka mędra;Masz 7 worków z monetami, w których 1 jest lżejszy od reszty oraz wagę szalkową. Ile (min.) razy potrzebujesz użyć wagi, by znaleźć lżejszy worek?;2;Najpierw na wadze umieszczamy po 2 worki, a później po 1 worku z pozostałych 3
Zagadka mnicha;Posiada troje oczu, wszystkie w jednym rzędzie. Gdy czerwone się otwiera, nikt nie waży się ruszyć.;światła, światła uliczne, sygnalizacja świetlna
